%YAML 1.1
%TAG !u! tag:unity3d.com,2011:
--- !u!162 &1
EditorUserSettings:
  m_ObjectHideFlags: 0
  serializedVersion: 4
  m_ConfigSettings:
    RecentlyUsedScenePath-0:
      value: 200b1b3316501b484214092c043710341900162623292223627b397ecfef223defe238fdaa373e2f2d07fd73561a4112fd1c0c06f3051e44301dee0b05ec5f2004cb16dc16c91118842a1fcbc318c2acd1d3d9e596fee9d1cac6
      flags: 0
    RecentlyUsedScenePath-1:
      value: 22424703114646680e0b0227036c6c111b07142f1f2b233e2867083debf42d
      flags: 0
    RecentlyUsedScenePath-2:
      value: 22424703114646680e0b0227036c72111f19352f223d68252320092a
      flags: 0
    RecentlyUsedScenePath-3:
      value: 22424703114646680e0b0227036c72111f19352f223d69032e2c1336cdf02031ede978fce9332b25
      flags: 0
    RecentlyUsedScenePath-4:
      value: 22424703114646680e0b0227036c72111f19352f223d69172c24183cf4e52676f7e93ffdfe
      flags: 0
    RecentlyUsedScenePath-5:
      value: 22424703114646680e0b0227036c721106590d24253c3f
      flags: 0
    RecentlyUsedScenePath-6:
      value: 22424703114646680e0b0227036c72111f19352f223d691d2c20131ee7ee2176f7e93ffdfe
      flags: 0
    RecentlyUsedScenePath-7:
      value: 22424703114646680e0b0227036c72111f19352f223d690724271336f0ae2136ebf32f
      flags: 0
    vcSharedLogLevel:
      value: 0d5e400f0650
      flags: 0
  m_VCAutomaticAdd: 1
  m_VCDebugCom: 0
  m_VCDebugCmd: 0
  m_VCDebugOut: 0
  m_SemanticMergeMode: 2
  m_VCShowFailedCheckout: 1
  m_VCOverwriteFailedCheckoutAssets: 1
  m_VCProjectOverlayIcons: 1
  m_VCHierarchyOverlayIcons: 1
  m_VCOtherOverlayIcons: 1
  m_VCAllowAsyncUpdate: 1
